1 10 20
100 200 125
201 210 89
900 1000 174
7897 5163 262
671 281 145
8108 2722 262
6713 8555 257
8140 9454 260
9511 2981 262
3513 9725 262
9602 8471 260
2088 8795 262
9968 1812 262
3944 234 238
727 8333 262
5974 8981 262
3495 6664 262
1613 7291 262
6294 9149 257
2337 7206 262
20 9246 262
586 4777 238
4335 9479 262
4378 3953 202
4193 3892 189
4319 757 238
5241 7865 262
1680 7375 262
4576 2506 238
2401 1759 183
5357 1935 238
8225 5718 262
29 1117 179
6584 7085 257
9162 1845 262
2958 2473 217
224 2185 182
54 8860 262
9344 8495 260
8216 9082 247
7109 3356 262
725 3815 238
3743 6946 262
4768 862 238
3700 509 217
8688 9636 260
8951 3145 262
7190 8401 252
1681 700 182
4034 6368 262
8032 4609 262
8754 3437 262
7737 9137 252
6152 7230 262
9102 6789 257
538 7410 262
8690 4736 262
3829 2799 238
1586 4200 238
3311 3271 168
5406 4626 210
537 9149 262
9763 7698 260
5562 3404 238
4025 5325 215
9829 9772 198
1072 1538 182
3947 6925 262
9634 4993 262
1596 2927 217
6701 54 262
9971 418 262
6151 6072 187
8798 1795 262
6051 647 238
3149 3256 199
8685 2325 262
4654 1614 238
4553 3983 215
230 2685 209
3527 7068 262
4001 1373 238
3330 2274 217
682 4518 238
453 1721 182
3852 3585 238
3529 9212 262
6712 6853 182
2733 7903 262
1612 3348 217
8399 875 262
1221 7897 262
4764 9152 262
7121 2509 262
9729 6259 260
7143 4992 262
3648 8754 262
6528 712 262
2073 7822 262
8445 1669 262
8791 8591 216
2879 7695 262
3433 1671 217
2216 9586 262
1337 5774 238
1477 4371 238
707 3983 238
3206 8389 262
9282 8207 260
7208 3345 262
1286 6665 262
1781 7350 262
3421 4499 238
3220 8216 262
4370 5307 215
8741 7169 252
2600 5168 238
7430 8814 252
5052 8303 262
1566 9370 262
9711 2067 262
8116 2292 262
5610 7579 262
3666 492 217
2311 6384 262
6136 837 238
5726 9918 262
9492 2460 262
9856 4391 262
5289 1770 238
933 507 179
8969 2598 262
4678 9499 262
9631 9293 198
1553 6599 262
1715 2450 183
2728 7344 262
1767 4682 238
3535 1982 217
3152 6374 262
6179 4608 262
10000 20000 279
20000 30000 308
30000 100000 351
100000 200000 383
200000 400000 443
400000 600000 470
600000 1000000 525
